n,cublas,naive,tiled
64,6.913081,16.769703,16.334996
256,344.359945,93.807122,187.815873
1024,1874.182886,109.563347,238.421103
4096,2902.340358,111.864960,237.721828
16384,3010.130519,111.189877,236.894958
